FILTER1 TABLE
RANK,COUNT,SCORE
TOP1,1,0.7600513541272501
TOP10,8,0.6800459484296448,10,
TOP50,43,0.6400864911616845,45,
TOP100,78,0.6400432455808422,84,
TOP200,135,0.6150831126006812,145,
ALL,193,0.0

FILTER2 TABLE
RANK,COUNT,SCORE
TOP1,1,0.08607150534362284
TOP10,10,0.01878502409513857
TOP50,45,0.003807766434584227
TOP100,84,0.0032953377089709164
TOP200,145,0.0007686430884199651
ALL,193,0.0
